Number,FirstName,LastName,gp,gs,tot,avg,fg,fga,ga%,3fg,3fga,3pt%,ft,fta,ft%,off,def,rtot,ravg,pf,a,ast/g,to,st,bl,pts,avg

01,Pitts, Justin,32,32,1164,36.4,253,455,.556,80,162,.494,107,138,.775,10,96,106,3.3,57,160,5.0,58,47,3,693,21.7
24,Crooker, Conner,33,31,1202,36.4,149,304,.490,64,150,.427,57,66,.864,7,86,93,2.8,60,80,2.4,15,15,6,419,12.7
33,Schneider, Zach,32,32,1137,35.5,96,224,.429,91,210,.433,30,36,.833,21,61,82,2.6,73,17,0.5,19,23,6,313,9.8
23,Ndow, Chris-Ebou,33,29,846,25.6,111,240,.463,35,103,.340,64,88,.727,62,146,208,6.3,104,33,1.0,55,23,17,321,9.7
30,Mosby, D'Vante,33,1,686,20.8,97,177,.548,4,17,.235,88,121,.727,73,96,169,5.1,79,15,0.5,26,21,13,286,8.7
20,Woods, Anthony,30,5,582,19.4,80,139,.576,3,7,.429,55,110,.500,25,72,97,3.2,61,57,1.9,50,19,7,218,7.3
32,Dougherty, Brett,33,33,696,21.1,78,154,.506,0,1,.000,39,64,.609,42,78,120,3.6,77,34,1.0,28,17,16,195,5.9
21,Kurth, Xavier,15,2,171,11.4,10,34,.294,4,19,.211,11,14,.786,7,15,22,1.5,15,9,0.6,5,3,1,35,2.3
34,Starzl, Dray,22,0,116,5.3,6,25,.240,0,8,.000,2,4,.500,1,9,10,0.5,19,4,0.2,4,2,1,14,0.6