{
  "buildOptions": {
    "emitEntryPoint": true,
    "preserveCompilationContext": true
  },
  "dependencies": {
    "xunit": "2.2.0-beta2-build3300",
    "dotnet-test-xunit": "2.2.0-preview2-build1029",
    "Microsoft.EntityFrameworkCore.InMemory": "1.0.0",
    "Microsoft.NETCore.App": {
      "version": "1.0.1",
      "type": "platform"
    },
    "Microsoft.AspNetCore.Authentication.Cookies": "1.0.0",
    "Microsoft.AspNetCore.Diagnostics": "1.0.0",
    "Microsoft.AspNetCore.Diagnostics.EntityFrameworkCore": "1.0.0",
    "Microsoft.AspNetCore.Identity.EntityFrameworkCore": "1.0.0",
    "Microsoft.AspNetCore.Mvc": "1.0.1",
    "Microsoft.AspNetCore.Razor.Tools": {
      "type": "build",
      "version": "1.0.0-preview2-003121"
    },
    "Microsoft.AspNetCore.Routing": "1.0.1",
    "Microsoft.AspNetCore.Server.IISIntegration": "1.0.0",
    "Microsoft.AspNetCore.Server.Kestrel": "1.0.1",
    "Microsoft.AspNetCore.StaticFiles": "1.0.0",
    "Microsoft.EntityFrameworkCore.SqlServer": "1.0.1",
    "Microsoft.EntityFrameworkCore.SqlServer.Design": {
      "version": "1.0.1",
      "type": "build"
    },
    "Microsoft.EntityFrameworkCore.Tools": {
      "version": "1.0.0-preview2-003121",
      "type": "build"
    },
    "Microsoft.Extensions.Configuration.EnvironmentVariables": "1.0.0",
    "Microsoft.Extensions.Configuration.Json": "1.0.0",
    "Microsoft.Extensions.Configuration.UserSecrets": "1.0.0",
    "Microsoft.Extensions.Logging": "1.0.0",
    "Microsoft.Extensions.Logging.Console": "1.0.0",
    "Microsoft.Extensions.Logging.Debug": "1.0.0",
    "Microsoft.Extensions.Options.ConfigurationExtensions": "1.0.0",
    "Microsoft.VisualStudio.Web.BrowserLink.Loader": "14.0.0",
    "Microsoft.VisualStudio.Web.CodeGeneration.Tools": {
      "version": "1.0.0-preview2-003121",
      "type": "build"
    },
    "Microsoft.VisualStudio.Web.CodeGenerators.Mvc": {
      "version": "1.0.0-preview2-003121",
      "type": "build"
    },
    "System.ComponentModel.Annotations": "4.1.0",

    "Microsoft.AspNet.Mvc.Core": "6.0.0-rc1-final"
  },
  "frameworks": {
    "netcoreapp1.0": {
      "imports": [
        "dotnet5.6",
        "portable-net45+win8"
      ]
    }
  },
  "publishOptions": {
    "include": [
      "wwwroot",
      "**/*.cshtml",
      "appsettings.json",
      "web.config"
    ]
  },
  "runtimeOptions": {
    "configProperties": {
      "System.GC.Server": true
    }
  },
  "scripts": {
    "prepublish": [ "bower install", "dotnet bundle" ],
    "postpublish": [ "dotnet publish-iis --publish-folder %publish:OutputPath% --framework %publish:FullTargetFramework%" ]
  },
  "testRunner": "xunit",
  "tools": {
    "BundlerMinifier.Core": "2.0.238",
    "Microsoft.AspNetCore.Razor.Tools": "1.0.0-preview2-003121",
    "Microsoft.AspNetCore.Server.IISIntegration.Tools": "1.0.0-preview2-003121",
    "Microsoft.EntityFrameworkCore.Tools": "1.0.0-preview2-003121",
    "Microsoft.Extensions.SecretManager.Tools": "1.0.0-preview2-003121",
    "Microsoft.VisualStudio.Web.CodeGeneration.Tools": {
      "version": "1.0.0-preview2-003121",
      "imports": [
        "portable-net45+win8"
      ]
    }
  },
  "userSecretsId": "aspnet-NWSports_BasketBall-d1c6eeb7-e80d-4fc8-ba34-ada3a8b4d3f4"
}
